<?xml version="1.0" encoding="utf-8"?>
<!-- Generator: Adobe Illustrator 21.0.2, SVG Export Plug-In . SVG Version: 6.00 Build 0)  -->
<svg version="1.1" id="Capa_1" xmlns="http://www.w3.org/2000/svg" xmlns:xlink="http://www.w3.org/1999/xlink" x="0px" y="0px"
	 viewBox="0 0 115 85" style="enable-background:new 0 0 115 85;" xml:space="preserve">
<metadata><?xpacket begin="﻿" id="W5M0MpCehiHzreSzNTczkc9d"?>
<x:xmpmeta xmlns:x="adobe:ns:meta/" x:xmptk="Adobe XMP Core 5.6-c137 79.159768, 2016/08/11-13:24:42        ">
   <rdf:RDF xmlns:rdf="http://www.w3.org/1999/02/22-rdf-syntax-ns#">
      <rdf:Description rdf:about=""/>
   </rdf:RDF>
</x:xmpmeta>
                                                                                                    
                                                                                                    
                                                                                                    
                                                                                                    
                                                                                                    
                                                                                                    
                                                                                                    
                                                                                                    
                                                                                                    
                                                                                                    
                                                                                                    
                                                                                                    
                                                                                                    
                                                                                                    
                                                                                                    
                                                                                                    
                                                                                                    
                                                                                                    
                                                                                                    
                                                                                                    
                           
<?xpacket end="w"?></metadata>
<style type="text/css">
	.st0{fill:none;}
	.st1{fill:#FFFFFF;}
	.st2{fill:#FFFFFF;stroke:#FFFFFF;stroke-width:0.3352;stroke-miterlimit:10;}
</style>
<polyline class="st0" points="42.4,22.3 57.5,37.1 73,22.3 64.4,22.3 59.2,27 "/>
<path class="st1" d="M57.5,38.5c-0.4,0-0.7-0.1-1-0.4L41.4,23.3c-0.6-0.5-0.6-1.4,0-2s1.4-0.6,2,0l14.1,13.8l12-11.4H65l-4.8,4.4
	c-0.6,0.5-1.5,0.5-2-0.1s-0.5-1.5,0.1-2l5.2-4.7c0.3-0.2,0.6-0.4,0.9-0.4H73c0.6,0,1.1,0.3,1.3,0.9c0.2,0.5,0.1,1.1-0.3,1.5
	L58.4,38.1C58.2,38.3,57.8,38.5,57.5,38.5z"/>
<path class="st1" d="M51.2,38.5H20.4c-0.6,0-1.1-0.3-1.3-0.9c-0.2-0.5-0.1-1.1,0.3-1.5l15.2-14.8c0.5-0.5,1.4-0.5,2,0l8.5,8.4
	c0.4,0.4,0.5,1,0.3,1.5s-0.7,0.9-1.3,0.9H36c-0.8,0-1.4-0.6-1.4-1.4s0.6-1.4,1.4-1.4h4.7l-5.1-5L23.9,35.7h27.3
	c0.8,0,1.4,0.6,1.4,1.4S51.9,38.5,51.2,38.5z"/>
<path class="st1" d="M93.9,38.5H64c-0.6,0-1.1-0.3-1.3-0.9c-0.2-0.5-0.1-1.1,0.3-1.5l6.6-6.5c0.3-0.3,0.6-0.4,1-0.4h7
	c0.8,0,1.4,0.6,1.4,1.4S78.3,32,77.6,32h-6.4l-3.8,3.7h23.1L78.1,23.5c-0.5-0.5-0.6-1.4,0-2c0.5-0.5,1.4-0.6,2,0l14.8,14.6
	c0.4,0.4,0.5,1,0.3,1.5C95,38.1,94.5,38.5,93.9,38.5z"/>
<g>
	<path class="st2" d="M31.9,46.2c0.5,0,1.1,0.1,1.5,0.4c0.1,0.1,0.3,0.1,0.3,0.1s0,0,0,0.1l0,0c-0.1,0-0.3-0.3-0.7-0.4
		C32.7,46.4,32.3,46.4,31.9,46.2c-1.5,0.1-2.8,1.5-2.8,3c0,1.7,1.3,2.8,2.8,2.8c0.4,0,0.8,0,1.1-0.1c0.4-0.1,0.5-0.4,0.7-0.4l0,0
		c0,0.1-0.1,0.1-0.3,0.3l0,0c-0.4,0.3-0.9,0.4-1.5,0.4c-1.6,0-3-1.2-3-3C29,47.6,30.3,46.2,31.9,46.2z"/>
	<path class="st2" d="M35.8,46.4C35.8,46.2,35.8,46.2,35.8,46.4c0.1-0.1,0.1,0,0.1,0l2.7,4.3l2.7-4.3c0,0,0,0,0.1,0
		c0,0,0.1,0,0.1,0.1v5.6c0,0,0,0.1-0.1,0.1c0,0-0.1,0-0.1-0.1v-5.6l-2.5,4.2c0,0,0,0-0.1,0s0,0-0.1,0l-2.5-4.2v5.6
		c0,0,0,0.1-0.1,0.1c0,0-0.1,0-0.1-0.1v-5.8H35.8z"/>
	<path class="st2" d="M43.4,51.5c0.1,0,0.1,0.1,0.7,0.4c0.3,0.1,0.7,0.3,1.1,0.3c1.1,0,1.7-0.5,1.7-1.5c0-0.5-0.3-0.8-0.8-1.1
		c-0.1-0.1-0.5-0.1-0.9-0.3c-0.4-0.1-0.7-0.3-0.9-0.3c-0.7-0.3-0.9-0.7-0.9-1.2c0-0.9,0.7-1.5,1.9-1.5c0.5,0,0.9,0.1,1.3,0.3
		c0.4,0,0.4,0.1,0.3,0.1c0,0-0.3-0.1-0.5-0.3c-0.3-0.1-0.7-0.1-0.9-0.1c-1.2,0-1.7,0.4-1.7,1.3c0,0.5,0.3,0.8,0.9,1.1
		c0.1,0.1,0.5,0.1,0.9,0.3c0.4,0.1,0.7,0.3,0.9,0.3c0.5,0.3,0.8,0.7,0.8,1.2c0,1.1-0.7,1.6-1.9,1.6c-0.8,0-1.3-0.3-1.7-0.5
		C43.4,51.6,43.3,51.6,43.4,51.5C43.3,51.5,43.4,51.5,43.4,51.5z"/>
	<path class="st2" d="M51.9,51.5c0.1,0,0.1,0.1,0.7,0.4c0.3,0.1,0.7,0.3,1.1,0.3c1.1,0,1.7-0.5,1.7-1.5c0-0.5-0.3-0.8-0.8-1.1
		c-0.1-0.1-0.5-0.1-0.9-0.3c-0.4-0.1-0.7-0.3-0.9-0.3c-0.7-0.3-0.9-0.7-0.9-1.2c0-0.9,0.7-1.5,1.9-1.5c0.5,0,0.9,0.1,1.3,0.3
		c0.3,0.1,0.3,0.3,0.1,0.3c0,0-0.3-0.1-0.5-0.3c-0.3-0.1-0.7-0.1-0.9-0.1c-1.2,0-1.7,0.4-1.7,1.3c0,0.5,0.3,0.8,0.9,1.1
		c0.1,0.1,0.5,0.1,0.9,0.3c0.4,0.1,0.7,0.3,0.9,0.3c0.5,0.3,0.8,0.7,0.8,1.2c0,1.1-0.7,1.6-1.9,1.6c-0.8,0-1.3-0.3-1.7-0.5
		C51.8,51.6,51.8,51.6,51.9,51.5C51.8,51.5,51.8,51.5,51.9,51.5z"/>
	<path class="st2" d="M56.7,46.2C56.8,46.2,56.8,46.2,56.7,46.2l2.3,3.1l2.3-3c0,0,0-0.1,0.1-0.1l0,0c0,0,0,0,0,0.1l-2.3,3.1v2.7
		c0,0,0,0.1-0.1,0.1c0,0-0.1,0-0.1-0.1v-2.7l-2.3-3.1C56.7,46.4,56.7,46.4,56.7,46.2L56.7,46.2z"/>
	<path class="st2" d="M62.9,51.5c0.1,0,0.1,0.1,0.7,0.4c0.3,0.1,0.7,0.3,1.1,0.3c1.1,0,1.7-0.5,1.7-1.5c0-0.5-0.3-0.8-0.8-1.1
		c-0.1-0.1-0.5-0.1-0.9-0.3c-0.4-0.1-0.7-0.3-0.9-0.3c-0.7-0.3-0.9-0.7-0.9-1.2c0-0.9,0.7-1.5,1.9-1.5c0.5,0,0.9,0.1,1.3,0.3
		c0.3,0.1,0.3,0.3,0.1,0.3c0,0-0.3-0.1-0.5-0.3c-0.3-0.1-0.7-0.1-0.9-0.1c-1.2,0-1.7,0.4-1.7,1.3c0,0.5,0.3,0.8,0.9,1.1
		c0.1,0.1,0.5,0.1,0.9,0.3c0.4,0.1,0.7,0.3,0.9,0.3c0.5,0.3,0.8,0.7,0.8,1.2c0,1.1-0.7,1.6-1.9,1.6c-0.8,0-1.3-0.3-1.7-0.5
		C62.7,51.6,62.7,51.6,62.9,51.5C62.7,51.5,62.7,51.5,62.9,51.5z"/>
	<path class="st2" d="M67.8,46.4h4.4l0,0l0,0h-2.1v5.8c0,0,0,0.1-0.1,0.1c0,0-0.1,0-0.1-0.1v-5.6L67.8,46.4
		C67.7,46.5,67.7,46.4,67.8,46.4C67.7,46.4,67.7,46.4,67.8,46.4z"/>
	<path class="st2" d="M73.7,46.4C73.7,46.4,73.9,46.4,73.7,46.4l3.9-0.1l0,0l0,0h-3.8v2.7h3.4l0,0l0,0h-3.4v2.7h3.8l0,0l0,0h-3.8
		c0,0-0.1,0-0.1-0.1V46.4z"/>
	<path class="st2" d="M79.5,46.4C79.5,46.2,79.6,46.2,79.5,46.4c0.1-0.1,0.1,0,0.1,0l2.7,4.3l2.7-4.3c0,0,0,0,0.1,0
		c0,0,0.1,0,0.1,0.1v5.6c0,0,0,0.1-0.1,0.1c0,0-0.1,0-0.1-0.1v-5.6l-2.5,4.2c0,0,0,0-0.1,0c0,0,0,0-0.1,0l-2.5-4.2v5.6
		c0,0,0,0.1-0.1,0.1c0,0-0.1,0-0.1-0.1v-5.8H79.5z"/>
</g>
</svg>
